…
    ## The following objects are masked from 'package:stats':
    ## 
    ##     filter, lag

    ## The following objects are masked from 'package:base':
    ## 
    ##     intersect, setdiff, setequal, union

``` r
set.seed(1442)    # makes the result reproducible
SRS_data <- data %>% slice_sample(n = 100)   # n --> sample size
print(SRS_data)   # used for printing the output
```

    ## # A tibble: 100 × 20
    ##       ID GENDER   AGE RACE  EDUCATION  MAR_ST POVERTY HOME_ROOMS HOME_TYPE WORK 
    ##    <dbl> <chr>  <dbl> <chr> <chr>      <chr>    <dbl>      <dbl> <chr>     <chr>
    ##  1 68109 male      45 Black High Scho… Marri…    2.7           5 Own       Work…
    ##  2 52833 male      32 White Some Coll… Divor…    1.11          4 Rent      Work…
    ##  3 52069 female    40 White 9 - 11th … Marri…    1.64          8 Own       Work…
    ##  4 66720 male      58 Black High Scho… Marri…    4.89          8 Own       Work…
    ##  5 57621 female    28 White Some Coll… Marri…    3.85          7 Own       NotW…
    ##  6 57816 male      30 White Some Coll… Never…    3.51          3 Rent      Work…
    ##  7 51912 female    27 White 9 - 11th … Marri…    0.17          5 Rent      NotW…
    ##  8 67195 male      49 White High Scho… Marri…    3.97          8 Own       Work…
    ##  9 56872 female    31 Black College G… Marri…    2.04          4 Own       Work…
    ## 10 63713 male      52 White College G… LiveP…    5             5 Own       Work…
    ## # ℹ 90 more rows
    ## # ℹ 10 more variables: WEIGHT <dbl>, HEIGHT <dbl>, BMI <dbl>, PULSE <dbl>,
    ## #   TOT_CHOL <dbl>, URINE_VOL <dbl>, DIABETES <chr>, HEALTH <chr>,
    ## #   SLEEP_HRS <dbl>, SMOKE <chr>
…
``` r
library(dplyr)
set.seed(1442)
n_target <- 120                   # sample size
N        <- nrow(data)            # population size
k        <- floor(N / n_target)   # sampling interval
# random start between 1 and k
r        <- sample(1:k, 1)
Sys_data <- data %>% slice(seq(from = r, to = N, by = k))
print(Sys_data)                   # used for printing the output
```

    ## # A tibble: 123 × 20
    ##       ID GENDER   AGE RACE  EDUCATION  MAR_ST POVERTY HOME_ROOMS HOME_TYPE WORK 
    ##    <dbl> <chr>  <dbl> <chr> <chr>      <chr>    <dbl>      <dbl> <chr>     <chr>
    ##  1 51647 female    45 White College G… Marri…    5             6 Own       Work…
    ##  2 51790 female    80 White 9 - 11th … Marri…    1.03          6 Own       NotW…
    ##  3 51933 male      54 White High Scho… Never…    3.69          5 Own       Work…
    ##  4 52067 female    80 White 9 - 11th … Marri…    1.51          7 Own       NotW…
    ##  5 52193 male      55 White High Scho… Marri…    5            13 Own       Work…
    ##  6 52315 female    52 Black High Scho… Marri…    2.27          8 Own       Work…
    ##  7 52450 male      63 White 9 - 11th … Marri…    2.2           7 Own       NotW…
    ##  8 52583 female    64 White Some Coll… Marri…    5            10 Own       NotW…
    ##  9 52731 female    47 White High Scho… Marri…    4.12          5 Own       Work…
    ## 10 52915 female    27 Other College G… Never…    5             3 Rent      Work…
    ## # ℹ 113 more rows
    ## # ℹ 10 more variables: WEIGHT <dbl>, HEIGHT <dbl>, BMI <dbl>, PULSE <dbl>,
    ## #   TOT_CHOL <dbl>, URINE_VOL <dbl>, DIABETES <chr>, HEALTH <chr>,
    ## #   SLEEP_HRS <dbl>, SMOKE <chr>

``` r
library(dplyr)
set.seed(1442)
# picking clusters
clusters_chosen <- data %>% distinct(WORK) %>%   # cluster group
                   slice_sample(n = 2) %>%       # n --> number of clusters
                   pull(WORK)
# keeping every observation in those clusters
Cluster_data <- data %>% filter(WORK %in% clusters_chosen)
print(Cluster_data)
```

    ## # A tibble: 2,283 × 20
    ##       ID GENDER   AGE RACE   EDUCATION MAR_ST POVERTY HOME_ROOMS HOME_TYPE WORK 
    ##    <dbl> <chr>  <dbl> <chr>  <chr>     <chr>    <dbl>      <dbl> <chr>     <chr>
    ##  1 51647 female    45 White  College … Marri…    5             6 Own       Work…
    ##  2 51656 male      58 White  College … Divor…    5            10 Rent      Work…
    ##  3 51657 male      54 White  9 - 11th… Marri…    2.2           6 Rent      Work…
    ##  4 51667 male      50 White  Some Col… Never…    1.24          4 Rent      Look…
    ##  5 51677 male      33 White  High Sch… Marri…    1.27         11 Own       Work…
    ##  6 51678 male      60 White  High Sch… Marri…    1.03          5 Own       Work…
    ##  7 51694 male      38 White  Some Col… Marri…    1.15          6 Own       Work…
    ##  8 51702 male      44 White  9 - 11th… Marri…    1.81         10 Rent      Work…
    ##  9 51710 female    26 White  College … Marri…    5             4 Own       Work…
    ## 10 51718 female    51 Mexic… College … Marri…    3.17          5 Own       Work…
    ## # ℹ 2,273 more rows
    ## # ℹ 10 more variables: WEIGHT <dbl>, HEIGHT <dbl>, BMI <dbl>, PULSE <dbl>,
    ## #   TOT_CHOL <dbl>, URINE_VOL <dbl>, DIABETES <chr>, HEALTH <chr>,
    ## #   SLEEP_HRS <dbl>, SMOKE <chr>
